%YAML 1.1
%TAG !u! tag:unity3d.com,2011:
--- !u!21 &2100000
Material:
  serializedVersion: 6
  m_ObjectHideFlags: 0
  m_CorrespondingSourceObject: {fileID: 0}
  m_PrefabInstance: {fileID: 0}
  m_PrefabAsset: {fileID: 0}
  m_Name: ToiletWater
  m_Shader: {fileID: -6465566751694194690, guid: d24a3b399c72d6944888cae95f783045, type: 3}
  m_ShaderKeywords: 
  m_LightmapFlags: 4
  m_EnableInstancingVariants: 0
  m_DoubleSidedGI: 0
  m_CustomRenderQueue: -1
  stringTagMap: {}
  disabledShaderPasses: []
  m_SavedProperties:
    serializedVersion: 3
    m_TexEnvs:
    - unity_Lightmaps:
        m_Texture: {fileID: 0}
        m_Scale: {x: 1, y: 1}
        m_Offset: {x: 0, y: 0}
    - unity_LightmapsInd:
        m_Texture: {fileID: 0}
        m_Scale: {x: 1, y: 1}
        m_Offset: {x: 0, y: 0}
    - unity_ShadowMasks:
        m_Texture: {fileID: 0}
        m_Scale: {x: 1, y: 1}
        m_Offset: {x: 0, y: 0}
    m_Ints: []
    m_Floats:
    - AmbientOcclusion: 0
    - Metallic: 0
    - RippleDensity: 100
    - RippleDensity_1: -0.06
    - RippleSpeed: 2.56
    - Smoothness: 0
    - WaterSpeed: 0.01
    m_Colors:
    - BaseColor: {r: 0.006289184, g: 0.45161515, b: 1, a: 1}
    - RippleColor: {r: 0.006289184, g: 0.32123902, b: 1, a: 0.8235294}
  m_BuildTextureStacks: []
